Final Project - Twitter
…
Frequently occuring but common words which can be considered as stop words

df <- total_text %>% mutate(Text = str_replace_all(text, "(<br />)+", " "))
tokens <- df %>% unnest_tokens(output = word, input = Text)
tokens %>%  dplyr::count(word, sort = TRUE)

## # A tibble: 31,386 x 2
##    word          n
##    <chr>     <int>
##  1 iphone    12444
##  2 the       11503
##  3 to         9781
##  4 my         7407
##  5 i          7071
##  6 iphonepro  6823
##  7 a          6519
##  8 and        6183
##  9 for        5410
## 10 apple      5136
## # ... with 31,376 more rows

As most of the words are stopwords, we should remove them.

get_stopwords()

## # A tibble: 175 x 2
##    word      lexicon 
##    <chr>     <chr>   
##  1 i         snowball
##  2 me        snowball
##  3 my        snowball
##  4 myself    snowball
##  5 we        snowball
##  6 our       snowball
##  7 ours      snowball
##  8 ourselves snowball
##  9 you       snowball
## 10 your      snowball
## # ... with 165 more rows

cleaned_tokens <- tokens %>%  anti_join(get_stopwords())

## Joining, by = "word"

nums <- cleaned_tokens %>% filter(str_detect(word, "^[0-9]")) %>% select(word) %>% unique()
cleaned_tokens <- cleaned_tokens %>%   anti_join(nums, by = "word")

After removing the stop words, we get:

cleaned_tokens %>%  dplyr::count(word, sort = TRUE)

## # A tibble: 31,261 x 2
##    word             n
##    <chr>        <int>
##  1 iphone       12444
##  2 iphonepro     6823
##  3 apple         5136
##  4 iphonepromax  3349
##  5 new           3190
##  6 max           2564
##  7 care          2384
##  8 phone         1693
##  9 gb            1686
## 10 like          1451
## # ... with 31,251 more rows
…
7. Getting Sentiments from nrc,afinn and bing

get_sentiments("nrc")

## # A tibble: 13,901 x 2
##    word        sentiment
##    <chr>       <chr>    
##  1 abacus      trust    
##  2 abandon     fear     
##  3 abandon     negative 
##  4 abandon     sadness  
##  5 abandoned   anger    
##  6 abandoned   fear     
##  7 abandoned   negative 
##  8 abandoned   sadness  
##  9 abandonment anger    
## 10 abandonment fear     
## # ... with 13,891 more rows

get_sentiments("afinn")

## # A tibble: 2,477 x 2
##    word       value
##    <chr>      <dbl>
##  1 abandon       -2
##  2 abandoned     -2
##  3 abandons      -2
##  4 abducted      -2
##  5 abduction     -2
##  6 abductions    -2
##  7 abhor         -3
##  8 abhorred      -3
##  9 abhorrent     -3
## 10 abhors        -3
## # ... with 2,467 more rows

get_sentiments("bing")

## # A tibble: 6,786 x 2
##    word        sentiment
##    <chr>       <chr>    
##  1 2-faces     negative 
##  2 abnormal    negative 
##  3 abolish     negative 
##  4 abominable  negative 
##  5 abominably  negative 
##  6 abominate   negative 
##  7 abomination negative 
##  8 abort       negative 
##  9 aborted     negative 
## 10 aborts      negative 
## # ... with 6,776 more rows
…
9. Now, tokenizing by n-gram

bigrams <- tokens %>%  unnest_tokens(bigram, text, token = "ngrams", n = 2)

## Warning: Factor `hashtags` contains implicit NA, consider using
## `forcats::fct_explicit_na`

bigrams %>%  dplyr::count(bigram, sort = TRUE)

## # A tibble: 149,834 x 2
##    bigram               n
##    <chr>            <int>
##  1 iphonepro max    37836
##  2 to enter         23709
##  3 how to           17532
##  4 of the           17504
##  5 i have           17103
##  6 in the           16457
##  7 an iphonepro     16349
##  8 iphone iphonepro 16065
##  9 on the           15314
## 10 the iphone       15279
## # ... with 149,824 more rows

10. Filtering the bi-grams

bigrams_separated <- bigrams %>%
  separate(bigram, c("word1", "word2"), sep = " ")
bigrams_filtered <- bigrams_separated %>%
  filter(!word1 %in% stop_words$word) %>%
  filter(!word2 %in% stop_words$word)

New bi-gram counts:

bigrams_filtered %>% count(word1, word2, sort = TRUE)

## # A tibble: 55,683 x 3
##    word1        word2            n
##    <chr>        <chr>        <int>
##  1 iphonepro    max          37836
##  2 iphone       iphonepro    16065
##  3 iphone       iphone       15122
##  4 iphonepro    iphonepromax 12009
##  5 iphonepromax iphonepro    11891
##  6 iphonepro    iphone       11691
##  7 apple        iphonepro    11326
##  8 apple        care         10451
##  9 apple        iphone       10178
## 10 likeretweet  follow        9763
## # ... with 55,673 more rows
…
13. Document Term Matrix

tf-idf is Term Frequency and Inverse document frequency. Using this, We can see the repititon of a term in a document and as compared to overall frequency of document.

word_counts_by_SNo <- cleaned_tokens %>%  
  group_by(Sno) %>%  
  dplyr::count(word, sort = TRUE)
word_counts_by_SNo

## # A tibble: 230,808 x 3
## # Groups:   Sno [22,894]
##      Sno word               n
##    <int> <chr>          <int>
##  1  3317 iphonegiveaway    14
##  2  3319 iphonegiveaway    14
##  3  3318 iphonegiveaway    13
##  4  3320 iphonegiveaway    13
##  5 23616 iphone            10
##  6 23617 iphone            10
##  7 17533 gbghub             9
##  8 17537 gbghub             9
##  9 17541 gbghub             9
## 10 19062 gbghub             9
## # ... with 230,798 more rows
…
